{
  "version": 1,
  "dependencies": [
    {
      "source": {
        "git": {
          "remote": "https://github.com/grafana/jsonnet-libs.git",
          "subdir": "ksonnet-util"
        }
      },
      "version": "00795013f5975f518a0a3de99253f9d5590271c8",
      "sum": "OxgtIWL4hjvG0xkMwUzZ7Yjs52zUhLhaVQpwHCbqf8A="
    },
    {
      "source": {
        "git": {
          "remote": "https://github.com/jsonnet-libs/k8s-libsonnet.git",
          "subdir": "1.20"
        }
      },
      "version": "91008dbd2ea5734288467d6dcafef7c285c3f7e6",
      "sum": "z5Pu+Nq2lZ2fgHOIdlQKqaZ30DMNx1u5VJ9be0o1FEI="
    }
  ],
  "legacyImports": false
}
